09-05.Januar/5a/F0018CH1.CSV

Record Length,2.500000e+03,,  -0.000044000000, -10.40000,
Sample Interval,2.000000e-07,,  -0.000043800000,  -9.60000,
Trigger Point,2.200000000000e+02,,  -0.000043600000, -10.40000,
,,,  -0.000043400000, -10.40000,
,,,  -0.000043200000, -10.40000,
,,,  -0.000043000000, -10.40000,
Source,CH1,,  -0.000042800000, -10.40000,
Vertical Units,V,,  -0.000042600000, -10.40000,
Vertical Scale,2.000000e+01,,  -0.000042400000, -10.40000,
Vertical Offset,0.000000e+00,,  -0.000042200000, -10.40000,
Horizontal Units,s,,  -0.000042000000,  -9.60000,
Horizontal Scale,5.000000e-05,,  -0.000041800000, -10.40000,
Pt Fmt,Y,,  -0.000041600000,  -9.60000,
Yzero,0.000000e+00,,  -0.000041400000, -10.40000,
Probe Atten,1.000000e+01,,  -0.000041200000,  -9.60000,
Model Number,TDS1001B,,  -0.000041000000, -10.40000,
Serial Number,C059821,,  -0.000040800000, -10.40000,
Firmware Version,FV:v22.01,,  -0.000040600000, -10.40000,
,,,-00.000040400000,  -9.60000,
,,,-00.000040200000, -10.40000,
,,,-00.000040000000,  -9.60000,
,,,-00.000039800000, -10.40000,
,,,-00.000039600000, -10.40000,
,,,-00.000039400000, -10.40000,
,,,-00.000039200000, -10.40000,
,,,-00.000039000000, -10.40000,
,,,-00.000038800000,  -9.60000,
,,,-00.000038600000, -10.40000,
,,,-00.000038400000,  -9.60000,
,,,-00.000038200000, -10.40000,
,,,-00.000038000000, -10.40000,
,,,-00.000037800000, -10.40000,
,,,-00.000037600000, -10.40000,
,,,-00.000037400000, -10.40000,
,,,-00.000037200000, -10.40000,
,,,-00.000037000000, -10.40000,
,,,-00.000036800000, -10.40000,
,,,-00.000036600000,  -9.60000,
,,,-00.000036400000,  -9.60000,
,,,-00.000036200000,  -9.60000,
,,,-00.000036000000,  -9.60000,
,,,-00.000035800000, -10.40000,
,,,-00.000035600000, -10.40000,
,,,-00.000035400000, -10.40000,
,,,-00.000035200000, -10.40000,
,,,-00.000035000000,  -9.60000,
,,,-00.000034800000,  -9.60000,
,,,-00.000034600000, -11.20000,
,,,-00.000034400000,  -9.60000,
,,,-00.000034200000,  -9.60000,
,,,-00.000034000000, -10.40000,
,,,-00.000033800000, -11.20000,
,,,-00.000033600000,  -9.60000,
,,,-00.000033400000, -10.40000,
,,,-00.000033200000,  -9.60000,
,,,-00.000033000000, -10.40000,
,,,-00.000032800000,  -9.60000,
,,,-00.000032600000,  -9.60000,
,,,-00.000032400000, -10.40000,
,,,-00.000032200000, -10.40000,
,,,-00.000032000000,  -9.60000,
,,,-00.000031800000,  -9.60000,
,,,-00.000031600000,  -9.60000,
,,,-00.000031400000, -10.40000,
,,,-00.000031200000, -10.40000,
,,,-00.000031000000,  -9.60000,
,,,-00.000030800000, -10.40000,
,,,-00.000030600000, -10.40000,
,,,-00.000030400000, -10.40000,
,,,-00.000030200000,  -9.60000,
,,,-00.000030000000, -11.20000,
,,,-00.000029800000, -10.40000,
,,,-00.000029600000, -11.20000,
,,,-00.000029400000, -10.40000,
,,,-00.000029200000, -10.40000,
,,,-00.000029000000, -10.40000,
,,,-00.000028800000, -10.40000,
,,,-00.000028600000, -10.40000,
,,,-00.000028400000,  -9.60000,
,,,-00.000028200000,  -9.60000,
,,,-00.000028000000, -10.40000,
,,,-00.000027800000, -11.20000,
,,,-00.000027600000, -11.20000,
,,,-00.000027400000,  -9.60000,
,,,-00.000027200000, -11.20000,
,,,-00.000027000000, -10.40000,
,,,-00.000026800000,  -9.60000,
,,,-00.000026600000, -11.20000,
,,,-00.000026400000, -11.20000,
,,,-00.000026200000, -10.40000,
,,,-00.000026000000, -10.40000,
,,,-00.000025800000, -10.40000,
,,,-00.000025600000, -10.40000,
,,,-00.000025400000, -10.40000,
,,,-00.000025200000, -10.40000,
,,,-00.000025000000,  -9.60000,
,,,-00.000024800000, -10.40000,
,,,-00.000024600000, -10.40000,
,,,-00.000024400000, -11.20000,
,,,-00.000024200000,  -9.60000,
,,,-00.000024000000,  -9.60000,
,,,-00.000023800000, -12.00000,
,,,-00.000023600000,  -9.60000,
,,,-00.000023400000, -10.40000,
,,,-00.000023200000, -10.40000,
,,,-00.000023000000,  -8.80000,
,,,-00.000022800000, -10.40000,
,,,-00.000022600000,  -9.60000,
,,,-00.000022400000, -10.40000,
,,,-00.000022200000, -10.40000,
,,,-00.000022000000, -10.40000,
,,,-00.000021800000,  -9.60000,
,,,-00.000021600000,  -9.60000,
,,,-00.000021400000,  -9.60000,
,,,-00.000021200000,  -9.60000,
,,,-00.000021000000,  -9.60000,
,,,-00.000020800000,  -9.60000,
,,,-00.000020600000, -10.40000,
,,,-00.000020400000, -10.40000,
,,,-00.000020200000, -10.40000,
,,,-00.000020000000,  -9.60000,
,,,-00.000019800000, -10.40000,
,,,-00.000019600000, -11.20000,
,,,-00.000019400000,  -9.60000,
,,,-00.000019200000,  -9.60000,
,,,-00.000019000000, -10.40000,
,,,-00.000018800000, -10.40000,
,,,-00.000018600000,  -9.60000,
,,,-00.000018400000,  -9.60000,
,,,-00.000018200000, -10.40000,
,,,-00.000018000000,  -9.60000,
,,,-00.000017800000, -10.40000,
,,,-00.000017600000,  -9.60000,
,,,-00.000017400000, -10.40000,
,,,-00.000017200000, -10.40000,
,,,-00.000017000000,  -9.60000,
,,,-00.000016800000, -10.40000,
,,,-00.000016600000,  -9.60000,
,,,-00.000016400000,  -9.60000,
,,,-00.000016200000,  -9.60000,
,,,-00.000016000000,  -9.60000,
,,,-00.000015800000, -10.40000,
,,,-00.000015600000, -10.40000,
,,,-00.000015400000, -10.40000,
,,,-00.000015200000, -10.40000,
,,,-00.000015000000, -11.20000,
,,,-00.000014800000, -11.20000,
,,,-00.000014600000, -10.40000,
,,,-00.000014400000,  -8.80000,
,,,-00.000014200000,  -9.60000,
,,,-00.000014000000, -10.40000,
,,,-00.000013800000, -10.40000,
,,,-00.000013600000, -10.40000,
,,,-00.000013400000, -11.20000,
,,,-00.000013200000, -10.40000,
,,,-00.000013000000, -10.40000,
,,,-00.000012800000, -10.40000,
,,,-00.000012600000,  -9.60000,
,,,-00.000012400000,  -9.60000,
,,,-00.000012200000,  -9.60000,
,,,-00.000012000000, -10.40000,
,,,-00.000011800000, -10.40000,
,,,-00.000011600000, -10.40000,
,,,-00.000011400000, -11.20000,
,,,-00.000011200000,  -9.60000,
,,,-00.000011000000, -10.40000,
,,,-00.000010800000, -10.40000,
,,,-00.000010600000, -11.20000,
,,,-00.000010400000,  -9.60000,
,,,-00.000010200000, -10.40000,
,,,-00.000010000000, -10.40000,
,,,-00.000009800000,  -9.60000,
,,,-00.000009600000, -10.40000,
,,,-00.000009400000, -10.40000,
,,,-00.000009200000,  -9.60000,
,,,-00.000009000000, -11.20000,
,,,-00.000008800000, -10.40000,
,,,-00.000008600000,  -9.60000,
,,,-00.000008400000,  -9.60000,
,,,-00.000008200000, -10.40000,
,,,-00.000008000000, -10.40000,
,,,-00.000007800000, -10.40000,
,,,-00.000007600000, -10.40000,
,,,-00.000007400000, -11.20000,
,,,-00.000007200000, -10.40000,
,,,-00.000007000000, -10.40000,
,,,-00.000006800000,  -9.60000,
,,,-00.000006600000, -10.40000,
,,,-00.000006400000, -10.40000,
,,,-00.000006200000, -10.40000,
,,,-00.000006000000, -10.40000,
,,,-00.000005800000,  -9.60000,
,,,-00.000005600000,  -9.60000,
,,,-00.000005400000, -10.40000,
,,,-00.000005200000, -10.40000,
,,,-00.000005000000, -10.40000,
,,,-00.000004800000,  -9.60000,
,,,-00.000004600000,  -9.60000,
,,,-00.000004400000, -10.40000,
,,,-00.000004200000, -10.40000,
,,,-00.000004000000, -11.20000,
,,,-00.000003800000, -11.20000,
,,,-00.000003600000, -10.40000,
,,,-00.000003400000, -10.40000,
,,,-00.000003200000, -10.40000,
,,,-00.000003000000, -10.40000,
,,,-00.000002800000,  -8.00000,
,,,-00.000002600000, -10.40000,
,,,-00.000002400000, -10.40000,
,,,-00.000002200000,  -9.60000,
,,,-00.000002000000, -10.40000,
,,,-00.000001800000,  -9.60000,
,,,-00.000001600000,  -9.60000,
,,,-00.000001400000,  -9.60000,
,,,-00.000001200000,  -9.60000,
,,,-00.000001000000,  -9.60000,
,,,-00.000000800000,  -9.60000,
,,,-00.000000600000,  -8.80000,
,,,-00.000000400000,  -9.60000,
,,,-00.000000200000,  -9.60000,
,,,-00.000000000000,  -8.80000,
,,,00.000000200000,  -9.60000,
,,,00.000000400000,  -8.80000,
,,,00.000000600000,  -8.00000,
,,,00.000000800000,  -8.80000,
,,,00.000001000000,  -7.20000,
,,,00.000001200000,  -6.40000,
,,,00.000001400000,  -6.40000,
,,,00.000001600000,  -6.40000,
,,,00.000001800000,  -4.80000,
,,,00.000002000000,  -4.80000,
,,,00.000002200000,  -4.00000,
,,,00.000002400000,  -4.00000,
,,,00.000002600000,  -3.20000,
,,,00.000002800000,  -2.40000,
,,,00.000003000000,  -1.60000,
,,,00.000003200000,   0.00000,
,,,00.000003400000,   0.00000,
,,,00.000003600000,   0.80000,
,,,00.000003800000,   1.60000,
,,,00.000004000000,   2.40000,
,,,00.000004200000,   2.40000,
,,,00.000004400000,   3.20000,
,,,00.000004600000,   4.80000,
,,,00.000004800000,   5.60000,
,,,00.000005000000,   6.40000,
,,,00.000005200000,   8.80000,
,,,00.000005400000,   8.80000,
,,,00.000005600000,   9.60000,
,,,00.000005800000,  10.40000,
,,,00.000006000000,  11.20000,
,,,00.000006200000,  12.80000,
,,,00.000006400000,  12.80000,
,,,00.000006600000,  14.40000,
,,,00.000006800000,  15.20000,
,,,00.000007000000,  16.80000,
,,,00.000007200000,  17.60000,
,,,00.000007400000,  17.60000,
,,,00.000007600000,  19.20000,
,,,00.000007800000,  20.80000,
,,,00.000008000000,  20.80000,
,,,00.000008200000,  22.40000,
,,,00.000008400000,  23.20000,
,,,00.000008600000,  24.80000,
,,,00.000008800000,  26.40000,
,,,00.000009000000,  27.20000,
,,,00.000009200000,  27.20000,
,,,00.000009400000,  28.80000,
,,,00.000009600000,  29.60000,
,,,00.000009800000,  30.40000,
,,,00.000010000000,  32.00000,
,,,00.000010200000,  33.60000,
,,,00.000010400000,  33.60000,
,,,00.000010600000,  33.60000,
,,,00.000010800000,  34.40000,
,,,00.000011000000,  36.80000,
,,,00.000011200000,  37.60000,
,,,00.000011400000,  37.60000,
,,,00.000011600000,  40.00000,
,,,00.000011800000,  40.00000,
,,,00.000012000000,  40.80000,
,,,00.000012200000,  41.60000,
,,,00.000012400000,  42.40000,
,,,00.000012600000,  43.20000,
,,,00.000012800000,  43.20000,
,,,00.000013000000,  44.80000,
,,,00.000013200000,  44.80000,
,,,00.000013400000,  46.40000,
,,,00.000013600000,  46.40000,
,,,00.000013800000,  46.40000,
,,,00.000014000000,  47.20000,
,,,00.000014200000,  48.00000,
,,,00.000014400000,  48.00000,
,,,00.000014600000,  48.80000,
,,,00.000014800000,  48.80000,
,,,00.000015000000,  49.60000,
,,,00.000015200000,  51.20000,
,,,00.000015400000,  51.20000,
,,,00.000015600000,  51.20000,
,,,00.000015800000,  51.20000,
,,,00.000016000000,  51.20000,
,,,00.000016200000,  50.40000,
,,,00.000016400000,  52.00000,
,,,00.000016600000,  52.00000,
,,,00.000016800000,  52.00000,
,,,00.000017000000,  52.00000,
,,,00.000017200000,  52.00000,
,,,00.000017400000,  51.20000,
,,,00.000017600000,  52.00000,
,,,00.000017800000,  52.00000,
,,,00.000018000000,  52.80000,
,,,00.000018200000,  52.00000,
,,,00.000018400000,  52.80000,
,,,00.000018600000,  52.00000,
,,,00.000018800000,  51.20000,
,,,00.000019000000,  51.20000,
,,,00.000019200000,  51.20000,
,,,00.000019400000,  50.40000,
,,,00.000019600000,  49.60000,
,,,00.000019800000,  48.80000,
,,,00.000020000000,  50.40000,
,,,00.000020200000,  50.40000,
,,,00.000020400000,  49.60000,
,,,00.000020600000,  48.00000,
,,,00.000020800000,  48.00000,
,,,00.000021000000,  48.00000,
,,,00.000021200000,  48.00000,
,,,00.000021400000,  46.40000,
,,,00.000021600000,  47.20000,
,,,00.000021800000,  45.60000,
,,,00.000022000000,  45.60000,
,,,00.000022200000,  44.00000,
,,,00.000022400000,  43.20000,
,,,00.000022600000,  41.60000,
,,,00.000022800000,  41.60000,
,,,00.000023000000,  40.80000,
,,,00.000023200000,  40.80000,
,,,00.000023400000,  40.00000,
,,,00.000023600000,  39.20000,
,,,00.000023800000,  38.40000,
,,,00.000024000000,  37.60000,
,,,00.000024200000,  36.00000,
,,,00.000024400000,  35.20000,
,,,00.000024600000,  34.40000,
,,,00.000024800000,  34.40000,
,,,00.000025000000,  33.60000,
,,,00.000025200000,  31.20000,
,,,00.000025400000,  31.20000,
,,,00.000025600000,  29.60000,
,,,00.000025800000,  28.80000,
,,,00.000026000000,  27.20000,
,,,00.000026200000,  27.20000,
,,,00.000026400000,  27.20000,
,,,00.000026600000,  25.60000,
,,,00.000026800000,  25.60000,
,,,00.000027000000,  23.20000,
,,,00.000027200000,  21.60000,
,,,00.000027400000,  22.40000,
,,,00.000027600000,  20.00000,
,,,00.000027800000,  20.00000,
,,,00.000028000000,  19.20000,
,,,00.000028200000,  17.60000,
,,,00.000028400000,  16.80000,
,,,00.000028600000,  16.80000,
,,,00.000028800000,  15.20000,
,,,00.000029000000,  13.60000,
,,,00.000029200000,  14.40000,
,,,00.000029400000,  12.00000,
,,,00.000029600000,  12.00000,
,,,00.000029800000,  10.40000,
,,,00.000030000000,  10.40000,
,,,00.000030200000,   8.80000,
,,,00.000030400000,   8.80000,
,,,00.000030600000,   6.40000,
,,,00.000030800000,   8.00000,
,,,00.000031000000,   6.40000,
,,,00.000031200000,   4.80000,
,,,00.000031400000,   4.00000,
,,,00.000031600000,   4.00000,
,,,00.000031800000,   3.20000,
,,,00.000032000000,   2.40000,
,,,00.000032200000,   0.80000,
,,,00.000032400000,   0.80000,
,,,00.000032600000,   0.00000,
,,,00.000032800000,   0.00000,
,,,00.000033000000,  -0.80000,
,,,00.000033200000,  -0.80000,
,,,00.000033400000,  -0.80000,
,,,00.000033600000,  -2.40000,
,,,00.000033800000,  -2.40000,
,,,00.000034000000,  -2.40000,
,,,00.000034200000,  -2.40000,
,,,00.000034400000,  -4.00000,
,,,00.000034600000,  -3.20000,
,,,00.000034800000,  -4.00000,
,,,00.000035000000,  -3.20000,
,,,00.000035200000,  -4.80000,
,,,00.000035400000,  -4.80000,
,,,00.000035600000,  -4.80000,
,,,00.000035800000,  -4.00000,
,,,00.000036000000,  -4.00000,
,,,00.000036200000,  -5.60000,
,,,00.000036400000,  -4.80000,
,,,00.000036600000,  -4.80000,
,,,00.000036800000,  -4.00000,
,,,00.000037000000,  -4.80000,
,,,00.000037200000,  -4.80000,
,,,00.000037400000,  -4.80000,
,,,00.000037600000,  -4.00000,
,,,00.000037800000,  -4.80000,
,,,00.000038000000,  -3.20000,
,,,00.000038200000,  -3.20000,
,,,00.000038400000,  -3.20000,
,,,00.000038600000,  -2.40000,
,,,00.000038800000,  -2.40000,
,,,00.000039000000,  -3.20000,
,,,00.000039200000,  -1.60000,
,,,00.000039400000,  -1.60000,
,,,00.000039600000,  -1.60000,
,,,00.000039800000,  -1.60000,
,,,00.000040000000,   0.00000,
,,,00.000040200000,   0.00000,
,,,00.000040400000,   0.80000,
,,,00.000040600000,   1.60000,
,,,00.000040800000,   1.60000,
,,,00.000041000000,   3.20000,
,,,00.000041200000,   2.40000,
,,,00.000041400000,   4.80000,
,,,00.000041600000,   4.80000,
,,,00.000041800000,   6.40000,
,,,00.000042000000,   5.60000,
,,,00.000042200000,   7.20000,
,,,00.000042400000,   6.40000,
,,,00.000042600000,   8.00000,
,,,00.000042800000,  10.40000,
,,,00.000043000000,  11.20000,
,,,00.000043200000,  11.20000,
,,,00.000043400000,  11.20000,
,,,00.000043600000,  12.80000,
,,,00.000043800000,  13.60000,
,,,00.000044000000,  13.60000,
,,,00.000044200000,  15.20000,
,,,00.000044400000,  15.20000,
,,,00.000044600000,  16.00000,
,,,00.000044800000,  18.40000,
,,,00.000045000000,  19.20000,
,,,00.000045200000,  20.00000,
,,,00.000045400000,  20.00000,
,,,00.000045600000,  20.80000,
,,,00.000045800000,  21.60000,
,,,00.000046000000,  22.40000,
,,,00.000046200000,  24.80000,
,,,00.000046400000,  24.80000,
,,,00.000046600000,  26.40000,
,,,00.000046800000,  26.40000,
,,,00.000047000000,  26.40000,
,,,00.000047200000,  28.00000,
,,,00.000047400000,  28.80000,
,,,00.000047600000,  29.60000,
,,,00.000047800000,  31.20000,
,,,00.000048000000,  32.00000,
,,,00.000048200000,  33.60000,
,,,00.000048400000,  33.60000,
,,,00.000048600000,  34.40000,
,,,00.000048800000,  34.40000,
,,,00.000049000000,  35.20000,
,,,00.000049200000,  35.20000,
,,,00.000049400000,  36.00000,
,,,00.000049600000,  38.40000,
,,,00.000049800000,  37.60000,
,,,00.000050000000,  40.00000,
,,,00.000050200000,  39.20000,
,,,00.000050400000,  40.00000,
,,,00.000050600000,  40.80000,
,,,00.000050800000,  41.60000,
,,,00.000051000000,  42.40000,
,,,00.000051200000,  43.20000,
,,,00.000051400000,  43.20000,
,,,00.000051600000,  44.00000,
,,,00.000051800000,  44.00000,
,,,00.000052000000,  44.00000,
,,,00.000052200000,  44.00000,
,,,00.000052400000,  45.60000,
,,,00.000052600000,  45.60000,
,,,00.000052800000,  46.40000,
,,,00.000053000000,  47.20000,
,,,00.000053200000,  46.40000,
,,,00.000053400000,  46.40000,
,,,00.000053600000,  47.20000,
,,,00.000053800000,  48.00000,
,,,00.000054000000,  48.00000,
,,,00.000054200000,  48.00000,
,,,00.000054400000,  48.80000,
,,,00.000054600000,  48.00000,
,,,00.000054800000,  48.80000,
,,,00.000055000000,  48.80000,
,,,00.000055200000,  48.80000,
,,,00.000055400000,  48.00000,
,,,00.000055600000,  48.00000,
,,,00.000055800000,  48.00000,
,,,00.000056000000,  48.80000,
,,,00.000056200000,  48.80000,
,,,00.000056400000,  47.20000,
,,,00.000056600000,  48.80000,
,,,00.000056800000,  48.00000,
,,,00.000057000000,  47.20000,
,,,00.000057200000,  46.40000,
,,,00.000057400000,  47.20000,
,,,00.000057600000,  45.60000,
,,,00.000057800000,  47.20000,
,,,00.000058000000,  46.40000,
,,,00.000058200000,  45.60000,
,,,00.000058400000,  44.80000,
,,,00.000058600000,  44.80000,
,,,00.000058800000,  44.80000,
,,,00.000059000000,  43.20000,
,,,00.000059200000,  43.20000,
,,,00.000059400000,  41.60000,
,,,00.000059600000,  43.20000,
,,,00.000059800000,  41.60000,
,,,00.000060000000,  40.80000,
,,,00.000060200000,  40.80000,
,,,00.000060400000,  39.20000,
,,,00.000060600000,  40.00000,
,,,00.000060800000,  39.20000,
,,,00.000061000000,  37.60000,
,,,00.000061200000,  37.60000,
,,,00.000061400000,  36.00000,
,,,00.000061600000,  36.80000,
,,,00.000061800000,  35.20000,
,,,00.000062000000,  34.40000,
,,,00.000062200000,  32.80000,
,,,00.000062400000,  32.00000,
,,,00.000062600000,  32.00000,
,,,00.000062800000,  31.20000,
,,,00.000063000000,  31.20000,
,,,00.000063200000,  30.40000,
,,,00.000063400000,  28.80000,
,,,00.000063600000,  27.20000,
,,,00.000063800000,  27.20000,
,,,00.000064000000,  26.40000,
,,,00.000064200000,  24.80000,
,,,00.000064400000,  24.80000,
,,,00.000064600000,  24.80000,
,,,00.000064800000,  23.20000,
,,,00.000065000000,  21.60000,
,,,00.000065200000,  20.80000,
,,,00.000065400000,  20.80000,
,,,00.000065600000,  20.00000,
,,,00.000065800000,  19.20000,
,,,00.000066000000,  18.40000,
,,,00.000066200000,  17.60000,
,,,00.000066400000,  17.60000,
,,,00.000066600000,  16.00000,
,,,00.000066800000,  14.40000,
,,,00.000067000000,  14.40000,
,,,00.000067200000,  14.40000,
,,,00.000067400000,  13.60000,
,,,00.000067600000,  12.80000,
,,,00.000067800000,  11.20000,
,,,00.000068000000,  11.20000,
,,,00.000068200000,   9.60000,
,,,00.000068400000,   9.60000,
,,,00.000068600000,   8.00000,
,,,00.000068800000,   8.00000,
,,,00.000069000000,   7.20000,
,,,00.000069200000,   6.40000,
,,,00.000069400000,   5.60000,
,,,00.000069600000,   6.40000,
,,,00.000069800000,   4.80000,
,,,00.000070000000,   4.80000,
,,,00.000070200000,   4.00000,
,,,00.000070400000,   4.00000,
,,,00.000070600000,   3.20000,
,,,00.000070800000,   1.60000,
,,,00.000071000000,   2.40000,
,,,00.000071200000,   1.60000,
,,,00.000071400000,   1.60000,
,,,00.000071600000,   0.80000,
,,,00.000071800000,   0.80000,
,,,00.000072000000,  -0.80000,
,,,00.000072200000,   0.00000,
,,,00.000072400000,  -0.80000,
,,,00.000072600000,   0.00000,
,,,00.000072800000,  -0.80000,
,,,00.000073000000,  -0.80000,
,,,00.000073200000,  -0.80000,
,,,00.000073400000,  -0.80000,
,,,00.000073600000,  -1.60000,
,,,00.000073800000,  -1.60000,
,,,00.000074000000,  -1.60000,
,,,00.000074200000,  -1.60000,
,,,00.000074400000,  -0.80000,
,,,00.000074600000,  -1.60000,
,,,00.000074800000,  -0.80000,
,,,00.000075000000,  -0.80000,
,,,00.000075200000,  -1.60000,
,,,00.000075400000,  -0.80000,
,,,00.000075600000,  -1.60000,
,,,00.000075800000,   0.00000,
,,,00.000076000000,   0.00000,
,,,00.000076200000,  -0.80000,
,,,00.000076400000,   0.80000,
,,,00.000076600000,   0.80000,
,,,00.000076800000,   0.80000,
,,,00.000077000000,   0.80000,
,,,00.000077200000,   2.40000,
,,,00.000077400000,   2.40000,
,,,00.000077600000,   3.20000,
,,,00.000077800000,   3.20000,
,,,00.000078000000,   4.00000,
,,,00.000078200000,   4.00000,
,,,00.000078400000,   4.80000,
,,,00.000078600000,   5.60000,
,,,00.000078800000,   5.60000,
,,,00.000079000000,   7.20000,
,,,00.000079200000,   6.40000,
,,,00.000079400000,   7.20000,
,,,00.000079600000,   8.00000,
,,,00.000079800000,   8.80000,
,,,00.000080000000,   8.00000,
,,,00.000080200000,   9.60000,
,,,00.000080400000,  10.40000,
,,,00.000080600000,  11.20000,
,,,00.000080800000,  12.00000,
,,,00.000081000000,  12.80000,
,,,00.000081200000,  12.80000,
